{"count":1302,"next":"http://localhost:8080/api/v2/pokemon?offset=20&limit=20","previous":null,"results":[{"name":"bulbasaur","url":"http://localhost:8080/api/v2/pokemon/1/"},{"name":"ivysaur","url":"http://localhost:8080/api/v2/pokemon/2/"},{"name":"venusaur","url":"http://localhost:8080/api/v2/pokemon/3/"},{"name":"charmander","url":"http://localhost:8080/api/v2/pokemon/4/"},{"name":"charmeleon","url":"http://localhost:8080/api/v2/pokemon/5/"},{"name":"charizard","url":"http://localhost:8080/api/v2/pokemon/6/"},{"name":"squirtle","url":"http://localhost:8080/api/v2/pokemon/7/"},{"name":"wartortle","url":"http://localhost:8080/api/v2/pokemon/8/"},{"name":"blastoise","url":"http://localhost:8080/api/v2/pokemon/9/"},{"name":"caterpie","url":"http://localhost:8080/api/v2/pokemon/10/"},{"name":"metapod","url":"http://localhost:8080/api/v2/pokemon/11/"},{"name":"butterfree","url":"http://localhost:8080/api/v2/pokemon/12/"},{"name":"weedle","url":"http://localhost:8080/api/v2/pokemon/13/"},{"name":"kakuna","url":"http://localhost:8080/api/v2/pokemon/14/"},{"name":"beedrill","url":"http://localhost:8080/api/v2/pokemon/15/"},{"name":"pidgey","url":"http://localhost:8080/api/v2/pokemon/16/"},{"name":"pidgeotto","url":"http://localhost:8080/api/v2/pokemon/17/"},{"name":"pidgeot","url":"http://localhost:8080/api/v2/pokemon/18/"},{"name":"rattata","url":"http://localhost:8080/api/v2/pokemon/19/"},{"name":"raticate","url":"http://localhost:8080/api/v2/pokemon/20/"}]}